{
  "project_info": {
    "project_number": "500729357162",
    "project_id": "todolist-d9215",
    "storage_bucket": "todolist-d9215.appspot.com"
  },
  "client": [
    {
      "client_info": {
        "mobilesdk_app_id": "1:500729357162:android:fd05e357c65ce57b4fbb13",
        "android_client_info": {
          "package_name": "com.example.to_do_list"
        }
      },
      "oauth_client": [
        {
          "client_id": "500729357162-intjrsdo9bc4r2d02qg2gdhlq18k3qns.apps.googleusercontent.com",
          "client_type": 3
        }
      ],
      "api_key": [
        {
          "current_key": "AIzaSyBDxKarPV71WQYW4tQ-vKXcL7crdBxUfxI"
        }
      ],
      "services": {
        "appinvite_service": {
          "other_platform_oauth_client": [
            {
              "client_id": "500729357162-intjrsdo9bc4r2d02qg2gdhlq18k3qns.apps.googleusercontent.com",
              "client_type": 3
            }
          ]
        }
      }
    }
  ],
  "configuration_version": "1"
}